{
  "images" : [
    {
      "idiom" : "iphone",
      "filename" : "logo_bug-gray60-40.png",
      "scale" : "1x"
    },
    {
      "idiom" : "iphone",
      "filename" : "logo_bug-gray60-80.png",
      "scale" : "2x"
    },
    {
      "idiom" : "iphone",
      "filename" : "logo_bug-gray60-120.png",
      "scale" : "3x"
    }
  ],
  "info" : {
    "version" : 1,
    "author" : "xcode"
  }
}